Analysis and Model Fitting Exercise
…
## finalize workflow 
happy_tree_wflow <- tree_wflow %>% 
  finalize_workflow(happy_tree)

fit_train_happy_tree <- happy_tree_wflow %>% 
  fit(data = train_data)

# 6) fit the model to training data 
# Use a trained workflow to predict section using test data
predict(fit_train_happy_tree, new_data = train_data)

## # A tibble: 508 × 1
##    .pred
##    <dbl>
##  1  99.2
##  2  99.2
##  3  98.7
##  4  98.7
##  5  98.7
##  6  98.7
##  7  98.7
##  8  99.2
##  9  99.2
## 10  99.2
## # … with 498 more rows
…
# finalize workflow 
best_lasso_wflow <- lasso_wflow %>% 
  finalize_workflow(best_lasso)

fit_best_lasso <- best_lasso_wflow %>% 
  fit(data = train_data)

#6) fit the model to the test data 
# Use a trained workflow to predict section using train data
predict(fit_best_lasso, new_data = train_data)

## # A tibble: 508 × 1
##    .pred
##    <dbl>
##  1  98.8
##  2  98.8
##  3  98.5
##  4  98.8
##  5  98.7
##  6  98.7
##  7  98.4
##  8  99.3
##  9  98.9
## 10  99.0
## # … with 498 more rows
…
# finalize workflow 
best_forest_wflow <- forest_wflow %>% 
  finalize_workflow(best_forest)

fit_best_forest <- best_forest_wflow %>% 
  fit(data = train_data)

# Use a trained workflow to predict section using train data
predict(fit_best_forest, new_data = train_data)

## # A tibble: 508 × 1
##    .pred
##    <dbl>
##  1  98.7
##  2  98.6
##  3  98.7
##  4  98.7
##  5  98.8
##  6  98.6
##  7  98.3
##  8  99.1
##  9  98.8
## 10  98.9
## # … with 498 more rows
…
rmse
standard
1.026835
Random Forest

The random forest model performed far better than the other three, according to the RMSE of 1.06, so I will fit the test data to this model.

forest_final <- best_forest_wflow %>% 
  last_fit(data_split) 

# Use a trained workflow to predict section using test data
forest_final %>% 
  collect_predictions() 

## # A tibble: 222 × 5
##    id               .pred  .row BodyTemp .config             
##    <chr>            <dbl> <int>    <dbl> <chr>               
##  1 train/test split  99.1     2    100.  Preprocessor1_Model1
##  2 train/test split  99.0     4     98.8 Preprocessor1_Model1
##  3 train/test split  99.7    11     98.2 Preprocessor1_Model1
##  4 train/test split  99.4    12     97.9 Preprocessor1_Model1
##  5 train/test split  98.7    14    102.  Preprocessor1_Model1
##  6 train/test split  99.4    17     99.3 Preprocessor1_Model1
##  7 train/test split  99.4    25     97.8 Preprocessor1_Model1
##  8 train/test split  99.4    27     99.5 Preprocessor1_Model1
##  9 train/test split  99.2    29     99.7 Preprocessor1_Model1
## 10 train/test split  99.2    32     98.8 Preprocessor1_Model1
## # … with 212 more rows
…
